.Xil/vivado_lab-16748-localhost.localdomain/hw_ila_data_1/zip_work/waveform.vcd
$date
        2021-Apr-21 19:23:51
$end
$version
        Vivado Lab Edition v2019.2 (64-bit)
$end
$timescale
        1ps
$end
$scope module dut $end
$var reg 1 " tdc_decoder_top_inst/inst_event_builder/trigger_fifo_empty $end
$var reg 29 # tdc_decoder_top_inst/inst_event_builder/trigger_fifo_data [28:0] $end
$var reg 1 @ tdc_decoder_top_inst/inst_event_builder/trigger_fifo_read $end
$var reg 1 A tdc_decoder_top_inst/inst_event_builder/tdc_fifo_empty $end
$var reg 40 B tdc_decoder_top_inst/inst_event_builder/tdc_fifo_data [39:0] $end
$var reg 1 j tdc_decoder_top_inst/inst_event_builder/matching_busy $end
$var reg 1 k tdc_decoder_top_inst/inst_event_builder/tdc_fifo_read $end
$var reg 1 l tdc_decoder_top_inst/inst_event_builder/readout_fifo_full $end
$var reg 40 m tdc_decoder_top_inst/inst_event_builder/event_data [39:0] $end
$var reg 1 7" tdc_decoder_top_inst/inst_event_builder/event_data_ready $end
$var reg 1 8" tdc_decoder_top_inst/inst_event_builder/building_busy $end
$var reg 10 9" tdc_decoder_top_inst/inst_event_builder/hit_count [9:0] $end
$var reg 6 C" tdc_decoder_top_inst/inst_event_builder/state [5:0] $end
$var reg 6 I" tdc_decoder_top_inst/inst_event_builder/nextstate [5:0] $end
$var reg 1 O" _TRIGGER $end
$var reg 1 P" _WINDOW $end
$var reg 1 Q" _GAP $end
$upscope $end
$enddefinitions $end
#0
$dumpvars
1"
b1011110101101110001011011110 #
0@
1A
b0 B
0j
0k
0l
b0 m
07"
08"
b0 9"
b1 C"
b1 I"
0O"
1P"
0Q"
$end
#99
0"
b1011110110011011100011010011 #
b10 I"
#100
1@
18"
b10 C"
b100 I"
1O"
#101
1"
0@
1j
b100 C"
#106
0j
b1000 I"
#107
b1010000000001011110110011011100011010011 m
17"
b1000 C"
b10000 I"
#108
b0 m
07"
b10000 C"
b100000 I"
#109
b1100000000000101111011000000000000000000 m
17"
08"
b100000 C"
b1 I"
#110
b0 m
07"
b1 C"
