.Xil/vivado_lab-7959-localhost.localdomain/hw_ila_data_7/zip_work/waveform.vcd
$date
        2021-May-19 12:43:55
$end
$version
        Vivado Lab Edition v2019.2 (64-bit)
$end
$timescale
        1ps
$end
$scope module dut $end
$var reg 8 " \tdc_decoder_top_inst/tdcv2_decoder_wrapper_master/tdcv2_decoder[1].inst_tdcv2_decoder/inst_phase_select/tdc_dline_1 [7:0] $end
$var reg 8 * \tdc_decoder_top_inst/tdcv2_decoder_wrapper_master/tdcv2_decoder[1].inst_tdcv2_decoder/inst_phase_select/tdc_dline_0 [7:0] $end
$var reg 1 2 _TRIGGER $end
$var reg 1 3 _WINDOW $end
$var reg 1 4 _GAP $end
$upscope $end
$enddefinitions $end
#0
$dumpvars
b1111100 "
b10110010 *
02
13
04
$end
#1
b11111 "
b1101100 *
#2
b111 "
b10011011 *
#3
b11000001 "
b100110 *
#4
b11110000 "
b11001001 *
#5
b1111100 "
b10110010 *
#6
b11111 "
b1101100 *
#7
b111 "
b10011011 *
#8
b11000001 "
b100110 *
#9
b11110000 "
b11001001 *
#10
b1111100 "
b10110010 *
#11
b11111 "
b1101100 *
#12
b111 "
b10011011 *
#13
b11000001 "
b100110 *
#14
b11110000 "
b11001001 *
#15
b1111100 "
b10110010 *
#16
b11111 "
b1101100 *
#17
b111 "
b10011011 *
#18
b11000001 "
b100110 *
#19
b11110000 "
b11001001 *
#20
b1111100 "
b10110010 *
#21
b11111 "
b1101100 *
#22
b111 "
b10011011 *
#23
b11000001 "
b100110 *
#24
b11110000 "
b11001001 *
#25
b1111100 "
b10110010 *
#26
b11111 "
b1101100 *
#27
b111 "
b10011011 *
#28
b11000001 "
b100110 *
#29
b11110000 "
b11001001 *
#30
b1111100 "
b10110010 *
#31
b11111 "
b1101100 *
#32
b111 "
b10011011 *
#33
b11000001 "
b100110 *
#34
b11110000 "
b11001001 *
#35
b1111100 "
b10110010 *
#36
b11111 "
b1101100 *
#37
b111 "
b10011011 *
#38
b11000001 "
b100110 *
#39
b11110000 "
b11001001 *
#40
b1111100 "
b10110010 *
#41
b11111 "
b1101100 *
#42
b111 "
b10011011 *
#43
b11000001 "
b100110 *
#44
b11110000 "
b11001001 *
#45
b1111100 "
b10110010 *
#46
b11111 "
b1101100 *
#47
b111 "
b10011011 *
#48
b11000001 "
b100110 *
#49
b11110000 "
b11001001 *
#50
b1111100 "
b10110010 *
#51
b11111 "
b1101100 *
#52
b111 "
b10011011 *
#53
b11000001 "
b100110 *
#54
b11110000 "
b11001001 *
#55
b1111100 "
b10110010 *
#56
b11111 "
b1101100 *
#57
b111 "
b10011011 *
#58
b11000001 "
b100110 *
#59
b11110000 "
b11001001 *
#60
b1111100 "
b10110010 *
#61
b11111 "
b1101100 *
#62
b111 "
b10011011 *
#63
b11000001 "
b100110 *
#64
b11110000 "
b11001001 *
#65
b1111100 "
b10110010 *
#66
b11111 "
b1101100 *
#67
b111 "
b10011011 *
#68
b11000001 "
b100110 *
#69
b11110000 "
b11001001 *
#70
b1111100 "
b10110010 *
#71
b11111 "
b1101100 *
#72
b111 "
b10011011 *
#73
b11000001 "
b100110 *
#74
b11110000 "
b11001001 *
#75
b1111100 "
b10110010 *
#76
b11111 "
b1101100 *
#77
b111 "
b10011011 *
#78
b11000001 "
b100110 *
#79
b11110000 "
b11001001 *
#80
b1111100 "
b10110010 *
#81
b11111 "
b1101100 *
#82
b111 "
b10011011 *
#83
b11000001 "
b100110 *
#84
b11110000 "
b11001001 *
#85
b1111100 "
b10110010 *
#86
b11111 "
b1101100 *
#87
b111 "
b10011011 *
#88
b11000001 "
b100110 *
#89
b11110000 "
b11001001 *
#90
b1111100 "
b10110010 *
#91
b11111 "
b1101100 *
#92
b111 "
b10011011 *
#93
b11000001 "
b100110 *
#94
b11110000 "
b11001001 *
#95
b1111100 "
b10110010 *
#96
b11111 "
b1101100 *
#97
b111 "
b10011011 *
#98
b11000001 "
b100110 *
#99
b11110000 "
b11001001 *
#100
b1111100 "
b10110010 *
#101
b11111 "
b1101100 *
#102
b111 "
b10011011 *
#103
b11000001 "
b100110 *
#104
b11110000 "
b11001001 *
#105
b1111100 "
b10110010 *
#106
b11111 "
b1101100 *
#107
b111 "
b10011011 *
#108
b11000001 "
b100110 *
#109
b11110000 "
b11001001 *
#110
b1111100 "
b10110010 *
#111
b11111 "
b1101100 *
#112
b111 "
b10011011 *
#113
b11000001 "
b100110 *
#114
b11110000 "
b11001001 *
#115
b1111100 "
b10110010 *
#116
b11111 "
b1101100 *
#117
b111 "
b10011011 *
#118
b11000001 "
b100110 *
#119
b11110000 "
b11001001 *
#120
b1111100 "
b10110010 *
#121
b11111 "
b1101100 *
#122
b111 "
b10011011 *
#123
b11000001 "
b100110 *
#124
b11110000 "
b11001001 *
#125
b1111100 "
b10110010 *
#126
b11111 "
b1101100 *
#127
b111 "
b10011011 *
#128
b11000001 "
b100110 *
#129
b11110000 "
b11001001 *
#130
b1111100 "
b10110010 *
#131
b11111 "
b1101100 *
#132
b111 "
b10011011 *
#133
b11000001 "
b100110 *
#134
b11110000 "
b11001001 *
#135
b1111100 "
b10110010 *
#136
b11111 "
b1101100 *
#137
b111 "
b10011011 *
#138
b11000001 "
b100110 *
#139
b11110000 "
b11001001 *
#140
b1111100 "
b10110010 *
#141
b11111 "
b1101100 *
#142
b111 "
b10011011 *
#143
b11000001 "
b100110 *
#144
b11110000 "
b11001001 *
#145
b1111100 "
b10110010 *
#146
b11111 "
b1101100 *
#147
b111 "
b10011011 *
#148
b11000001 "
b100110 *
#149
b11110000 "
b11001001 *
#150
b1111100 "
b10110010 *
#151
b11111 "
b1101100 *
#152
b111 "
b10011011 *
#153
b11000001 "
b100110 *
#154
b11110000 "
b11001001 *
#155
b1111100 "
b10110010 *
#156
b11111 "
b1101100 *
#157
b111 "
b10011011 *
#158
b11000001 "
b100110 *
#159
b11110000 "
b11001001 *
#160
b1111100 "
b10110010 *
#161
b11111 "
b1101100 *
#162
b111 "
b10011011 *
#163
b11000001 "
b100110 *
#164
b11110000 "
b11001001 *
#165
b1111100 "
b10110010 *
#166
b11111 "
b1101100 *
#167
b111 "
b10011011 *
#168
b11000001 "
b100110 *
#169
b11110000 "
b11001001 *
#170
b1111100 "
b10110010 *
#171
b11111 "
b1101100 *
#172
b111 "
b10011011 *
#173
b11000001 "
b100110 *
#174
b11110000 "
b11001001 *
#175
b1111100 "
b10110010 *
#176
b11111 "
b1101100 *
#177
b111 "
b10011011 *
#178
b11000001 "
b100110 *
#179
b11110000 "
b11001001 *
#180
b1111100 "
b10110010 *
#181
b11111 "
b1101100 *
#182
b111 "
b10011011 *
#183
b11000001 "
b100110 *
#184
b11110000 "
b11001001 *
#185
b1111100 "
b10110010 *
#186
b11111 "
b1101100 *
#187
b111 "
b10011011 *
#188
b11000001 "
b100110 *
#189
b11110000 "
b11001001 *
#190
b1111100 "
b10110010 *
#191
b11111 "
b1101100 *
#192
b111 "
b10011011 *
#193
b11000001 "
b100110 *
#194
b11110000 "
b11001001 *
#195
b1111100 "
b10110010 *
#196
b11111 "
b1101100 *
#197
b111 "
b10011011 *
#198
b11000001 "
b100110 *
#199
b11110000 "
b11001001 *
#200
b1111100 "
b10110010 *
#201
b11111 "
b1101100 *
#202
b111 "
b10011011 *
#203
b11000001 "
b100110 *
#204
b11110000 "
b11001001 *
#205
b1111100 "
b10110010 *
#206
b11111 "
b1101100 *
#207
b111 "
b10011011 *
#208
b11000001 "
b100110 *
#209
b11110000 "
b11001001 *
#210
b1111100 "
b10110010 *
#211
b11111 "
b1101100 *
#212
b111 "
b10011011 *
#213
b11000001 "
b100110 *
#214
b11110000 "
b11001001 *
#215
b1111100 "
b10110010 *
#216
b11111 "
b1101100 *
#217
b111 "
b10011011 *
#218
b11000001 "
b100110 *
#219
b11110000 "
b11001001 *
#220
b1111100 "
b10110010 *
#221
b11111 "
b1101100 *
#222
b111 "
b10011011 *
#223
b11000001 "
b100110 *
#224
b11110000 "
b11001001 *
#225
b1111100 "
b10110010 *
#226
b11111 "
b1101100 *
#227
b111 "
b10011011 *
#228
b11000001 "
b100110 *
#229
b11110000 "
b11001001 *
#230
b1111100 "
b10110010 *
#231
b11111 "
b1101100 *
#232
b111 "
b10011011 *
#233
b11000001 "
b100110 *
#234
b11110000 "
b11001001 *
#235
b1111100 "
b10110010 *
#236
b11111 "
b1101100 *
#237
b111 "
b10011011 *
#238
b11000001 "
b100110 *
#239
b11110000 "
b11001001 *
#240
b1111100 "
b10110010 *
#241
b11111 "
b1101100 *
#242
b111 "
b10011011 *
#243
b11000001 "
b100110 *
#244
b11110000 "
b11001001 *
#245
b1111100 "
b10110010 *
#246
b11111 "
b1101100 *
#247
b111 "
b10011011 *
#248
b11000001 "
b100110 *
#249
b11110000 "
b11001001 *
#250
b1111100 "
b10110010 *
#251
b11111 "
b1101100 *
#252
b111 "
b10011011 *
#253
b11000001 "
b100110 *
#254
b11110000 "
b11001001 *
#255
b1111100 "
b10110010 *
#256
b11111 "
b1101100 *
#257
b111 "
b10011011 *
#258
b11000001 "
b100110 *
#259
b11110000 "
b11001001 *
#260
b1111100 "
b10110010 *
#261
b11111 "
b1101100 *
#262
b111 "
b10011011 *
#263
b11000001 "
b100110 *
#264
b11110000 "
b11001001 *
#265
b1111100 "
b10110010 *
#266
b11111 "
b1101100 *
#267
b111 "
b10011011 *
#268
b11000001 "
b100110 *
#269
b11110000 "
b11001001 *
#270
b1111100 "
b10110010 *
#271
b11111 "
b1101100 *
#272
b111 "
b10011011 *
#273
b11000001 "
b100110 *
#274
b11110000 "
b11001001 *
#275
b1111100 "
b10110010 *
#276
b11111 "
b1101100 *
#277
b111 "
b10011011 *
#278
b11000001 "
b100110 *
#279
b11110000 "
b11001001 *
#280
b1111100 "
b10110010 *
#281
b11111 "
b1101100 *
#282
b111 "
b10011011 *
#283
b11000001 "
b100110 *
#284
b11110000 "
b11001001 *
#285
b1111100 "
b10110010 *
#286
b11111 "
b1101100 *
#287
b111 "
b10011011 *
#288
b11000001 "
b100110 *
#289
b11110000 "
b11001001 *
#290
b1111100 "
b10110010 *
#291
b11111 "
b1101100 *
#292
b111 "
b10011011 *
#293
b11000001 "
b100110 *
#294
b11110000 "
b11001001 *
#295
b1111100 "
b10110010 *
#296
b11111 "
b1101100 *
#297
b111 "
b10011011 *
#298
b11000001 "
b100110 *
#299
b11110000 "
b11001001 *
#300
b1111100 "
b10110010 *
#301
b11111 "
b1101100 *
#302
b111 "
b10011011 *
#303
b11000001 "
b100110 *
#304
b11110000 "
b11001001 *
#305
b1111100 "
b10110010 *
#306
b11111 "
b1101100 *
#307
b111 "
b10011011 *
#308
b11000001 "
b100110 *
#309
b11110000 "
b11001001 *
#310
b1111100 "
b10110010 *
#311
b11111 "
b1101100 *
#312
b111 "
b10011011 *
#313
b11000001 "
b100110 *
#314
b11110000 "
b11001001 *
#315
b1111100 "
b10110010 *
#316
b11111 "
b1101100 *
#317
b111 "
b10011011 *
#318
b11000001 "
b100110 *
#319
b11110000 "
b11001001 *
#320
b1111100 "
b10110010 *
#321
b11111 "
b1101100 *
#322
b111 "
b10011011 *
#323
b11000001 "
b100110 *
#324
b11110000 "
b11001001 *
#325
b1111100 "
b10110010 *
#326
b11111 "
b1101100 *
#327
b111 "
b10011011 *
#328
b11000001 "
b100110 *
#329
b11110000 "
b11001001 *
#330
b1111100 "
b10110010 *
#331
b11111 "
b1101100 *
#332
b111 "
b10011011 *
#333
b11000001 "
b100110 *
#334
b11110000 "
b11001001 *
#335
b1111100 "
b10110010 *
#336
b11111 "
b1101100 *
#337
b111 "
b10011011 *
#338
b11000001 "
b100110 *
#339
b11110000 "
b11001001 *
#340
b1111100 "
b10110010 *
#341
b11111 "
b1101100 *
#342
b111 "
b10011011 *
#343
b11000001 "
b100110 *
#344
b11110000 "
b11001001 *
#345
b1111100 "
b10110010 *
#346
b11111 "
b1101100 *
#347
b111 "
b10011011 *
#348
b11000001 "
b100110 *
#349
b11110000 "
b11001001 *
#350
b1111100 "
b10110010 *
#351
b11111 "
b1101100 *
#352
b111 "
b10011011 *
#353
b11000001 "
b100110 *
#354
b11110000 "
b11001001 *
#355
b1111100 "
b10110010 *
#356
b11111 "
b1101100 *
#357
b111 "
b10011011 *
#358
b11000001 "
b100110 *
#359
b11110000 "
b11001001 *
#360
b1111100 "
b10110010 *
#361
b11111 "
b1101100 *
#362
b111 "
b10011011 *
#363
b11000001 "
b100110 *
#364
b11110000 "
b11001001 *
#365
b1111100 "
b10110010 *
#366
b11111 "
b1101100 *
#367
b111 "
b10011011 *
#368
b11000001 "
b100110 *
#369
b11110000 "
b11001001 *
#370
b1111100 "
b10110010 *
#371
b11111 "
b1101100 *
#372
b111 "
b10011011 *
#373
b11000001 "
b100110 *
#374
b11110000 "
b11001001 *
#375
b1111100 "
b10110010 *
#376
b11111 "
b1101100 *
#377
b111 "
b10011011 *
#378
b11000001 "
b100110 *
#379
b11110000 "
b11001001 *
#380
b1111100 "
b10110010 *
#381
b11111 "
b1101100 *
#382
b111 "
b10011011 *
#383
b11000001 "
b100110 *
#384
b11110000 "
b11001001 *
#385
b1111100 "
b10110010 *
#386
b11111 "
b1101100 *
#387
b111 "
b10011011 *
#388
b11000001 "
b100110 *
#389
b11110000 "
b11001001 *
#390
b1111100 "
b10110010 *
#391
b11111 "
b1101100 *
#392
b111 "
b10011011 *
#393
b11000001 "
b100110 *
#394
b11110000 "
b11001001 *
#395
b1111100 "
b10110010 *
#396
b11111 "
b1101100 *
#397
b111 "
b10011011 *
#398
b11000001 "
b100110 *
#399
b11110000 "
b11001001 *
#400
b1111100 "
b10110010 *
#401
b11111 "
b1101100 *
#402
b111 "
b10011011 *
#403
b11000001 "
b100110 *
#404
b11110000 "
b11001001 *
#405
b1111100 "
b10110010 *
#406
b11111 "
b1101100 *
#407
b111 "
b10011011 *
#408
b11000001 "
b100110 *
#409
b11110000 "
b11001001 *
#410
b1111100 "
b10110010 *
#411
b11111 "
b1101100 *
#412
b111 "
b10011011 *
#413
b11000001 "
b100110 *
#414
b11110000 "
b11001001 *
#415
b1111100 "
b10110010 *
#416
b11111 "
b1101100 *
#417
b111 "
b10011011 *
#418
b11000001 "
b100110 *
#419
b11110000 "
b11001001 *
#420
b1111100 "
b10110010 *
#421
b11111 "
b1101100 *
#422
b111 "
b10011011 *
#423
b11000001 "
b100110 *
#424
b11110000 "
b11001001 *
#425
b1111100 "
b10110010 *
#426
b11111 "
b1101100 *
#427
b111 "
b10011011 *
#428
b11000001 "
b100110 *
#429
b11110000 "
b11001001 *
#430
b1111100 "
b10110010 *
#431
b11111 "
b1101100 *
#432
b111 "
b10011011 *
#433
b11000001 "
b100110 *
#434
b11110000 "
b11001001 *
#435
b1111100 "
b10110010 *
#436
b11111 "
b1101100 *
#437
b111 "
b10011011 *
#438
b11000001 "
b100110 *
#439
b11110000 "
b11001001 *
#440
b1111100 "
b10110010 *
#441
b11111 "
b1101100 *
#442
b111 "
b10011011 *
#443
b11000001 "
b100110 *
#444
b11110000 "
b11001001 *
#445
b1111100 "
b10110010 *
#446
b11111 "
b1101100 *
#447
b111 "
b10011011 *
#448
b11000001 "
b100110 *
#449
b11110000 "
b11001001 *
#450
b1111100 "
b10110010 *
#451
b11111 "
b1101100 *
#452
b111 "
b10011011 *
#453
b11000001 "
b100110 *
#454
b11110000 "
b11001001 *
#455
b1111100 "
b10110010 *
#456
b11111 "
b1101100 *
#457
b111 "
b10011011 *
#458
b11000001 "
b100110 *
#459
b11110000 "
b11001001 *
#460
b1111100 "
b10110010 *
#461
b11111 "
b1101100 *
#462
b111 "
b10011011 *
#463
b11000001 "
b100110 *
#464
b11110000 "
b11001001 *
#465
b1111100 "
b10110010 *
#466
b11111 "
b1101100 *
#467
b111 "
b10011011 *
#468
b11000001 "
b100110 *
#469
b11110000 "
b11001001 *
#470
b1111100 "
b10110010 *
#471
b11111 "
b1101100 *
#472
b111 "
b10011011 *
#473
b11000001 "
b100110 *
#474
b11110000 "
b11001001 *
#475
b1111100 "
b10110010 *
#476
b11111 "
b1101100 *
#477
b111 "
b10011011 *
#478
b11000001 "
b100110 *
#479
b11110000 "
b11001001 *
#480
b1111100 "
b10110010 *
#481
b11111 "
b1101100 *
#482
b111 "
b10011011 *
#483
b11000001 "
b100110 *
#484
b11110000 "
b11001001 *
#485
b1111100 "
b10110010 *
#486
b11111 "
b1101100 *
#487
b111 "
b10011011 *
#488
b11000001 "
b100110 *
#489
b11110000 "
b11001001 *
#490
b1111100 "
b10110010 *
#491
b11111 "
b1101100 *
#492
b111 "
b10011011 *
#493
b11000001 "
b100110 *
#494
b11110000 "
b11001001 *
#495
b1111100 "
b10110010 *
#496
b11111 "
b1101100 *
#497
b111 "
b10011011 *
#498
b11000001 "
b100110 *
#499
b11110000 "
b11001001 *
#500
b1111100 "
b10110010 *
#501
b11111 "
b1101100 *
#502
b111 "
b10011011 *
#503
b11000001 "
b100110 *
#504
b11110000 "
b11001001 *
#505
b1111100 "
b10110010 *
#506
b11111 "
b1101100 *
#507
b111 "
b10011011 *
#508
b11000001 "
b100110 *
#509
b11110000 "
b11001001 *
#510
b1111100 "
b10110010 *
#511
b11111 "
b1101100 *
#512
b111 "
b10011011 *
12
#513
b11000001 "
b100110 *
#514
b11110000 "
b11001001 *
#515
b1111100 "
b10110010 *
#516
b11111 "
b1101100 *
#517
b111 "
b10011011 *
#518
b11000001 "
b100110 *
#519
b11110000 "
b11001001 *
#520
b1111100 "
b10110010 *
#521
b11111 "
b1101100 *
#522
b111 "
b10011011 *
#523
b11000001 "
b100110 *
#524
b11110000 "
b11001001 *
#525
b1111100 "
b10110010 *
#526
b11111 "
b1101100 *
#527
b111 "
b10011011 *
#528
b11000001 "
b100110 *
#529
b11110000 "
b11001001 *
#530
b1111100 "
b10110010 *
#531
b11111 "
b1101100 *
#532
b111 "
b10011011 *
#533
b11000001 "
b100110 *
#534
b11110000 "
b11001001 *
#535
b1111100 "
b10110010 *
#536
b11111 "
b1101100 *
#537
b111 "
b10011011 *
#538
b11000001 "
b100110 *
#539
b11110000 "
b11001001 *
#540
b1111100 "
b10110010 *
#541
b11111 "
b1101100 *
#542
b111 "
b10011011 *
#543
b11000001 "
b100110 *
#544
b11110000 "
b11001001 *
#545
b1111100 "
b10110010 *
#546
b11111 "
b1101100 *
#547
b111 "
b10011011 *
#548
b11000001 "
b100110 *
#549
b11110000 "
b11001001 *
#550
b1111100 "
b10110010 *
#551
b11111 "
b1101100 *
#552
b111 "
b10011011 *
#553
b11000001 "
b100110 *
#554
b11110000 "
b11001001 *
#555
b1111100 "
b10110010 *
#556
b11111 "
b1101100 *
#557
b111 "
b10011011 *
#558
b11000001 "
b100110 *
#559
b11110000 "
b11001001 *
#560
b1111100 "
b10110010 *
#561
b11111 "
b1101100 *
#562
b111 "
b10011011 *
#563
b11000001 "
b100110 *
#564
b11110000 "
b11001001 *
#565
b1111100 "
b10110010 *
#566
b11111 "
b1101100 *
#567
b111 "
b10011011 *
#568
b11000001 "
b100110 *
#569
b11110000 "
b11001001 *
#570
b1111100 "
b10110010 *
#571
b11111 "
b1101100 *
#572
b111 "
b10011011 *
#573
b11000001 "
b100110 *
#574
b11110000 "
b11001001 *
#575
b1111100 "
b10110010 *
#576
b11111 "
b1101100 *
#577
b111 "
b10011011 *
#578
b11000001 "
b100110 *
#579
b11110000 "
b11001001 *
#580
b1111100 "
b10110010 *
#581
b11111 "
b1101100 *
#582
b111 "
b10011011 *
#583
b11000001 "
b100110 *
#584
b11110000 "
b11001001 *
#585
b1111100 "
b10110010 *
#586
b11111 "
b1101100 *
#587
b111 "
b10011011 *
#588
b11000001 "
b100110 *
#589
b11110000 "
b11001001 *
#590
b1111100 "
b10110010 *
#591
b11111 "
b1101100 *
#592
b111 "
b10011011 *
#593
b11000001 "
b100110 *
#594
b11110000 "
b11001001 *
#595
b1111100 "
b10110010 *
#596
b11111 "
b1101100 *
#597
b111 "
b10011011 *
#598
b11000001 "
b100110 *
#599
b11110000 "
b11001001 *
#600
b1111100 "
b10110010 *
#601
b11111 "
b1101100 *
#602
b111 "
b10011011 *
#603
b11000001 "
b100110 *
#604
b11110000 "
b11001001 *
#605
b1111100 "
b10110010 *
#606
b11111 "
b1101100 *
#607
b111 "
b10011011 *
#608
b11000001 "
b100110 *
#609
b11110000 "
b11001001 *
#610
b1111100 "
b10110010 *
#611
b11111 "
b1101100 *
#612
b111 "
b10011011 *
#613
b11000001 "
b100110 *
#614
b11110000 "
b11001001 *
#615
b1111100 "
b10110010 *
#616
b11111 "
b1101100 *
#617
b111 "
b10011011 *
#618
b11000001 "
b100110 *
#619
b11110000 "
b11001001 *
#620
b1111100 "
b10110010 *
#621
b11111 "
b1101100 *
#622
b111 "
b10011011 *
#623
b11000001 "
b100110 *
#624
b11110000 "
b11001001 *
#625
b1111100 "
b10110010 *
#626
b11111 "
b1101100 *
#627
b111 "
b10011011 *
#628
b11000001 "
b100110 *
#629
b11110000 "
b11001001 *
#630
b1111100 "
b10110010 *
#631
b11111 "
b1101100 *
#632
b111 "
b10011011 *
#633
b11000001 "
b100110 *
#634
b11110000 "
b11001001 *
#635
b1111100 "
b10110010 *
#636
b11111 "
b1101100 *
#637
b111 "
b10011011 *
#638
b11000001 "
b100110 *
#639
b11110000 "
b11001001 *
#640
b1111100 "
b10110010 *
#641
b11111 "
b1101100 *
#642
b111 "
b10011011 *
#643
b11000001 "
b100110 *
#644
b11110000 "
b11001001 *
#645
b1111100 "
b10110010 *
#646
b11111 "
b1101100 *
#647
b111 "
b10011011 *
#648
b11000001 "
b100110 *
#649
b11110000 "
b11001001 *
#650
b1111100 "
b10110010 *
#651
b11111 "
b1101100 *
#652
b111 "
b10011011 *
#653
b11000001 "
b100110 *
#654
b11110000 "
b11001001 *
#655
b1111100 "
b10110010 *
#656
b11111 "
b1101100 *
#657
b111 "
b10011011 *
#658
b11000001 "
b100110 *
#659
b11110000 "
b11001001 *
#660
b1111100 "
b10110010 *
#661
b11111 "
b1101100 *
#662
b111 "
b10011011 *
#663
b11000001 "
b100110 *
#664
b11110000 "
b11001001 *
#665
b1111100 "
b10110010 *
#666
b11111 "
b1101100 *
#667
b111 "
b10011011 *
#668
b11000001 "
b100110 *
#669
b11110000 "
b11001001 *
#670
b1111100 "
b10110010 *
#671
b11111 "
b1101100 *
#672
b111 "
b10011011 *
#673
b11000001 "
b100110 *
#674
b11110000 "
b11001001 *
#675
b1111100 "
b10110010 *
#676
b11111 "
b1101100 *
#677
b111 "
b10011011 *
#678
b11000001 "
b100110 *
#679
b11110000 "
b11001001 *
#680
b1111100 "
b10110010 *
#681
b11111 "
b1101100 *
#682
b111 "
b10011011 *
#683
b11000001 "
b100110 *
#684
b11110000 "
b11001001 *
#685
b1111100 "
b10110010 *
#686
b11111 "
b1101100 *
#687
b111 "
b10011011 *
#688
b11000001 "
b100110 *
#689
b11110000 "
b11001001 *
#690
b1111100 "
b10110010 *
#691
b11111 "
b1101100 *
#692
b111 "
b10011011 *
#693
b11000001 "
b100110 *
#694
b11110000 "
b11001001 *
#695
b1111100 "
b10110010 *
#696
b11111 "
b1101100 *
#697
b111 "
b10011011 *
#698
b11000001 "
b100110 *
#699
b11110000 "
b11001001 *
#700
b1111100 "
b10110010 *
#701
b11111 "
b1101100 *
#702
b111 "
b10011011 *
#703
b11000001 "
b100110 *
#704
b11110000 "
b11001001 *
#705
b1111100 "
b10110010 *
#706
b11111 "
b1101100 *
#707
b111 "
b10011011 *
#708
b11000001 "
b100110 *
#709
b11110000 "
b11001001 *
#710
b1111100 "
b10110010 *
#711
b11111 "
b1101100 *
#712
b111 "
b10011011 *
#713
b11000001 "
b100110 *
#714
b11110000 "
b11001001 *
#715
b1111100 "
b10110010 *
#716
b11111 "
b1101100 *
#717
b111 "
b10011011 *
#718
b11000001 "
b100110 *
#719
b11110000 "
b11001001 *
#720
b1111100 "
b10110010 *
#721
b11111 "
b1101100 *
#722
b111 "
b10011011 *
#723
b11000001 "
b100110 *
#724
b11110000 "
b11001001 *
#725
b1111100 "
b10110010 *
#726
b11111 "
b1101100 *
#727
b111 "
b10011011 *
#728
b11000001 "
b100110 *
#729
b11110000 "
b11001001 *
#730
b1111100 "
b10110010 *
#731
b11111 "
b1101100 *
#732
b111 "
b10011011 *
#733
b11000001 "
b100110 *
#734
b11110000 "
b11001001 *
#735
b1111100 "
b10110010 *
#736
b11111 "
b1101100 *
#737
b111 "
b10011011 *
#738
b11000001 "
b100110 *
#739
b11110000 "
b11001001 *
#740
b1111100 "
b10110010 *
#741
b11111 "
b1101100 *
#742
b111 "
b10011011 *
#743
b11000001 "
b100110 *
#744
b11110000 "
b11001001 *
#745
b1111100 "
b10110010 *
#746
b11111 "
b1101100 *
#747
b111 "
b10011011 *
#748
b11000001 "
b100110 *
#749
b11110000 "
b11001001 *
#750
b1111100 "
b10110010 *
#751
b11111 "
b1101100 *
#752
b111 "
b10011011 *
#753
b11000001 "
b100110 *
#754
b11110000 "
b11001001 *
#755
b1111100 "
b10110010 *
#756
b11111 "
b1101100 *
#757
b111 "
b10011011 *
#758
b11000001 "
b100110 *
#759
b11110000 "
b11001001 *
#760
b1111100 "
b10110010 *
#761
b11111 "
b1101100 *
#762
b111 "
b10011011 *
#763
b11000001 "
b100110 *
#764
b11110000 "
b11001001 *
#765
b1111100 "
b10110010 *
#766
b11111 "
b1101100 *
#767
b111 "
b10011011 *
#768
b11000001 "
b100110 *
#769
b11110000 "
b11001001 *
#770
b1111100 "
b10110010 *
#771
b11111 "
b1101100 *
#772
b111 "
b10011011 *
#773
b11000001 "
b100110 *
#774
b11110000 "
b11001001 *
#775
b1111100 "
b10110010 *
#776
b11111 "
b1101100 *
#777
b111 "
b10011011 *
#778
b11000001 "
b100110 *
#779
b11110000 "
b11001001 *
#780
b1111100 "
b10110010 *
#781
b11111 "
b1101100 *
#782
b111 "
b10011011 *
#783
b11000001 "
b100110 *
#784
b11110000 "
b11001001 *
#785
b1111100 "
b10110010 *
#786
b11111 "
b1101100 *
#787
b111 "
b10011011 *
#788
b11000001 "
b100110 *
#789
b11110000 "
b11001001 *
#790
b1111100 "
b10110010 *
#791
b11111 "
b1101100 *
#792
b111 "
b10011011 *
#793
b11000001 "
b100110 *
#794
b11110000 "
b11001001 *
#795
b1111100 "
b10110010 *
#796
b11111 "
b1101100 *
#797
b111 "
b10011011 *
#798
b11000001 "
b100110 *
#799
b11110000 "
b11001001 *
#800
b1111100 "
b10110010 *
#801
b11111 "
b1101100 *
#802
b111 "
b10011011 *
#803
b11000001 "
b100110 *
#804
b11110000 "
b11001001 *
#805
b1111100 "
b10110010 *
#806
b11111 "
b1101100 *
#807
b111 "
b10011011 *
#808
b11000001 "
b100110 *
#809
b11110000 "
b11001001 *
#810
b1111100 "
b10110010 *
#811
b11111 "
b1101100 *
#812
b111 "
b10011011 *
#813
b11000001 "
b100110 *
#814
b11110000 "
b11001001 *
#815
b1111100 "
b10110010 *
#816
b11111 "
b1101100 *
#817
b111 "
b10011011 *
#818
b11000001 "
b100110 *
#819
b11110000 "
b11001001 *
#820
b1111100 "
b10110010 *
#821
b11111 "
b1101100 *
#822
b111 "
b10011011 *
#823
b11000001 "
b100110 *
#824
b11110000 "
b11001001 *
#825
b1111100 "
b10110010 *
#826
b11111 "
b1101100 *
#827
b111 "
b10011011 *
#828
b11000001 "
b100110 *
#829
b11110000 "
b11001001 *
#830
b1111100 "
b10110010 *
#831
b11111 "
b1101100 *
#832
b111 "
b10011011 *
#833
b11000001 "
b100110 *
#834
b11110000 "
b11001001 *
#835
b1111100 "
b10110010 *
#836
b11111 "
b1101100 *
#837
b111 "
b10011011 *
#838
b11000001 "
b100110 *
#839
b11110000 "
b11001001 *
#840
b1111100 "
b10110010 *
#841
b11111 "
b1101100 *
#842
b111 "
b10011011 *
#843
b11000001 "
b100110 *
#844
b11110000 "
b11001001 *
#845
b1111100 "
b10110010 *
#846
b11111 "
b1101100 *
#847
b111 "
b10011011 *
#848
b11000001 "
b100110 *
#849
b11110000 "
b11001001 *
#850
b1111100 "
b10110010 *
#851
b11111 "
b1101100 *
#852
b111 "
b10011011 *
#853
b11000001 "
b100110 *
#854
b11110000 "
b11001001 *
#855
b1111100 "
b10110010 *
#856
b11111 "
b1101100 *
#857
b111 "
b10011011 *
#858
b11000001 "
b100110 *
#859
b11110000 "
b11001001 *
#860
b1111100 "
b10110010 *
#861
b11111 "
b1101100 *
#862
b111 "
b10011011 *
#863
b11000001 "
b100110 *
#864
b11110000 "
b11001001 *
#865
b1111100 "
b10110010 *
#866
b11111 "
b1101100 *
#867
b111 "
b10011011 *
#868
b11000001 "
b100110 *
#869
b11110000 "
b11001001 *
#870
b1111100 "
b10110010 *
#871
b11111 "
b1101100 *
#872
b111 "
b10011011 *
#873
b11000001 "
b100110 *
#874
b11110000 "
b11001001 *
#875
b1111100 "
b10110010 *
#876
b11111 "
b1101100 *
#877
b111 "
b10011011 *
#878
b11000001 "
b100110 *
#879
b11110000 "
b11001001 *
#880
b1111100 "
b10110010 *
#881
b11111 "
b1101100 *
#882
b111 "
b10011011 *
#883
b11000001 "
b100110 *
#884
b11110000 "
b11001001 *
#885
b1111100 "
b10110010 *
#886
b11111 "
b1101100 *
#887
b111 "
b10011011 *
#888
b11000001 "
b100110 *
#889
b11110000 "
b11001001 *
#890
b1111100 "
b10110010 *
#891
b11111 "
b1101100 *
#892
b111 "
b10011011 *
#893
b11000001 "
b100110 *
#894
b11110000 "
b11001001 *
#895
b1111100 "
b10110010 *
#896
b11111 "
b1101100 *
#897
b111 "
b10011011 *
#898
b11000001 "
b100110 *
#899
b11110000 "
b11001001 *
#900
b1111100 "
b10110010 *
#901
b11111 "
b1101100 *
