.Xil/vivado_lab-8417-localhost.localdomain/hw_ila_data_1/zip_work/waveform.vcd
$date
        2021-May-19 12:23:39
$end
$version
        Vivado Lab Edition v2019.2 (64-bit)
$end
$timescale
        1ps
$end
$scope module dut $end
$var reg 5 " num_active_ports_1 [4:0] $end
$var reg 1 ' sa_done_1 $end
$var reg 1 ( lock_OBUF_1 $end
$var reg 18 ) active_chains_1 [17:0] $end
$var reg 1 ; JTAG_busy $end
$var reg 1 < tdi_tdo_equal_1 $end
$var reg 6 = chain_success_1 [5:0] $end
$var reg 1 C elink_ttc_org $end
$var reg 18 D tdo_IBUF [17:0] $end
$var reg 18 V tdi_OBUF [17:0] $end
$var reg 18 h tck_OBUF [17:0] $end
$var reg 18 z tms_OBUF [17:0] $end
$var reg 1 ." _TRIGGER $end
$var reg 1 /" _WINDOW $end
$var reg 1 0" _GAP $end
$upscope $end
$enddefinitions $end
#0
$dumpvars
b10 "
1'
1(
b1000000010 )
0;
1<
b111111 =
0C
b11001010101011 D
b1000000000 V
b111111111111111111 h
b111111111111111111 z
0."
1/"
00"
$end
#11
b0 h
#28
b111111111111111111 h
#45
b0 h
#62
b111111111111111111 h
#79
b0 h
#96
b111111111111111111 h
#113
b0 h
#130
b111111111111111111 h
#147
b0 h
#164
b111111111111111111 h
#181
b0 h
#198
b111111111111111111 h
#215
b0 h
#232
b111111111111111111 h
#249
b0 h
#266
b111111111111111111 h
#283
b0 h
#300
b111111111111111111 h
#317
b0 h
#334
b111111111111111111 h
#351
b0 h
#368
b111111111111111111 h
#385
b0 h
#402
b111111111111111111 h
#419
b0 h
#436
b111111111111111111 h
#453
b0 h
#470
b111111111111111111 h
#487
b0 h
#504
b111111111111111111 h
#512
1C
1."
#514
0C
#521
b0 h
#538
b111111111111111111 h
#555
b0 h
#572
b111111111111111111 h
#589
b0 h
#606
b111111111111111111 h
#623
b0 h
#640
b111111111111111111 h
#657
b0 h
#674
b111111111111111111 h
#691
b0 h
#708
b111111111111111111 h
#725
b0 h
#742
b111111111111111111 h
#759
b0 h
#776
b111111111111111111 h
#793
b0 h
#810
b111111111111111111 h
#827
b0 h
#844
b111111111111111111 h
#861
b0 h
#878
b111111111111111111 h
#895
b0 h
#912
b111111111111111111 h
#929
b0 h
#946
b111111111111111111 h
#963
b0 h
#980
b111111111111111111 h
#997
b0 h
#1014
b111111111111111111 h
