DAQ/.Xil/vivado_lab-22234-localhost.localdomain/hw_ila_data_2/zip_work/waveform.vcd
$date
        2021-Apr-29 04:47:09
$end
$version
        Vivado Lab Edition v2019.2 (64-bit)
$end
$timescale
        1ps
$end
$scope module dut $end
$var reg 1 " tdc_decoder_top_inst/inst_trigger_interface/srst_160 $end
$var reg 1 # tdc_decoder_top_inst/inst_trigger_interface/trigger_write_1 $end
$var reg 1 $ tdc_decoder_top_inst/inst_trigger_interface/trigger_write $end
$var reg 1 % tdc_decoder_top_inst/inst_trigger_interface/trigger_fifo_full $end
$var reg 1 & tdc_decoder_top_inst/inst_trigger_interface/trigger_ready $end
$var reg 29 ' tdc_decoder_top_inst/inst_trigger_interface/trigger_fifo_data [28:0] $end
$var reg 1 D tdc_decoder_top_inst/inst_trigger_interface/trigger_fifo_empty $end
$var reg 12 E tdc_decoder_top_inst/inst_trigger_interface/trigger_coarse [11:0] $end
$var reg 17 Q tdc_decoder_top_inst/inst_trigger_interface/trigger_time_delayed_1 [16:0] $end
$var reg 12 b tdc_decoder_top_inst/inst_trigger_interface/event_count_1 [11:0] $end
$var reg 17 n tdc_decoder_top_inst/inst_trigger_interface/trigger_time_delayed [16:0] $end
$var reg 12 !" tdc_decoder_top_inst/inst_trigger_interface/event_count [11:0] $end
$var reg 1 -" tdc_decoder_top_inst/inst_trigger_interface/trigger_in $end
$var reg 1 ." _TRIGGER $end
$var reg 1 /" _WINDOW $end
$var reg 1 0" _GAP $end
$upscope $end
$enddefinitions $end
#0
$dumpvars
0"
0#
0$
0%
0&
b111100000011010101111011000 '
1D
b11011010000 E
b11010101111011000 Q
b1111000001 b
b11010101111011000 n
b1111000001 !"
1-"
0."
1/"
00"
$end
#1
b11011010001 E
#5
b11011010010 E
#9
b11011010011 E
#13
b11011010100 E
#17
b11011010101 E
#21
b11011010110 E
#25
b11011010111 E
#29
b11011011000 E
#33
b11011011001 E
#37
b11011011010 E
#41
b11011011011 E
#45
b11011011100 E
#49
b11011011101 E
#53
b11011011110 E
#57
b11011011111 E
#61
b11011100000 E
#65
b11011100001 E
#69
b11011100010 E
#73
b11011100011 E
#77
b11011100100 E
#81
b11011100101 E
#85
b11011100110 E
#89
b11011100111 E
#93
b11011101000 E
#97
b11011101001 E
#101
b11011101010 E
#105
b11011101011 E
#109
b11011101100 E
#113
b11011101101 E
#117
b11011101110 E
#121
b11011101111 E
#125
b11011110000 E
#129
b11011110001 E
#133
b11011110010 E
#137
b11011110011 E
#141
b11011110100 E
#145
b11011110101 E
#149
b11011110110 E
#153
b11011110111 E
#157
b11011111000 E
#161
b11011111001 E
#165
b11011111010 E
#169
b11011111011 E
#173
b11011111100 E
#177
b11011111101 E
#181
b11011111110 E
#185
b11011111111 E
#189
b11100000000 E
#193
b11100000001 E
#197
b11100000010 E
#201
b11100000011 E
#205
b11100000100 E
#209
b11100000101 E
#213
b11100000110 E
#217
b11100000111 E
#221
b11100001000 E
#225
b11100001001 E
#229
b11100001010 E
#233
b11100001011 E
#237
b11100001100 E
#241
b11100001101 E
#245
b11100001110 E
#249
b11100001111 E
#253
b11100010000 E
#257
b11100010001 E
#261
b11100010010 E
#265
b11100010011 E
#269
b11100010100 E
#273
b11100010101 E
#277
b11100010110 E
#281
b11100010111 E
#285
b11100011000 E
#289
b11100011001 E
#293
b11100011010 E
#297
b11100011011 E
#301
b11100011100 E
#305
b11100011101 E
#309
b11100011110 E
#313
b11100011111 E
#317
b11100100000 E
#321
b11100100001 E
#325
b11100100010 E
#329
b11100100011 E
#333
b11100100100 E
#337
b11100100101 E
#341
b11100100110 E
#345
b11100100111 E
#349
b11100101000 E
#353
b11100101001 E
#357
b11100101010 E
#361
b11100101011 E
#365
b11100101100 E
#369
b11100101101 E
#373
b11100101110 E
#377
b11100101111 E
#381
b11100110000 E
#385
b11100110001 E
#389
b11100110010 E
#393
b11100110011 E
#397
b11100110100 E
#401
b11100110101 E
#405
b11100110110 E
#409
b11100110111 E
#413
b11100111000 E
#417
b11100111001 E
#421
b11100111010 E
#425
b11100111011 E
#429
b11100111100 E
#433
b11100111101 E
#437
b11100111110 E
#441
b11100111111 E
#445
b11101000000 E
#449
b11101000001 E
#453
b11101000010 E
#457
b11101000011 E
#461
b11101000100 E
#465
b11101000101 E
#469
b11101000110 E
#473
b11101000111 E
#477
b11101001000 E
#481
b11101001001 E
#485
b11101001010 E
#489
b11101001011 E
#493
b11101001100 E
#497
b11101001101 E
#501
b11101001110 E
#505
b11101001111 E
#509
b11101010000 E
#512
0-"
1."
#513
b11101010001 E
#515
1&
#516
0&
#517
b11101010010 E
#521
b11101010011 E
1-"
#525
b11101010100 E
#529
b11101010101 E
#533
b11101010110 E
#537
b11101010111 E
#541
b11101011000 E
#545
b11101011001 E
#549
b11101011010 E
#553
b11101011011 E
#557
b11101011100 E
#561
b11101011101 E
#565
b11101011110 E
#569
b11101011111 E
#573
b11101100000 E
#577
b11101100001 E
#581
b11101100010 E
#585
b11101100011 E
#589
b11101100100 E
#593
b11101100101 E
#597
b11101100110 E
#601
b11101100111 E
#605
b11101101000 E
#609
b11101101001 E
#613
b11101101010 E
#617
b11101101011 E
#621
b11101101100 E
#625
b11101101101 E
#629
b11101101110 E
#633
b11101101111 E
#637
b11101110000 E
#641
b11101110001 E
#645
b11101110010 E
#649
b11101110011 E
#653
b11101110100 E
#657
b11101110101 E
#661
b11101110110 E
#665
b11101110111 E
#669
b11101111000 E
#673
b11101111001 E
#677
b11101111010 E
#681
b11101111011 E
#685
b11101111100 E
#689
b11101111101 E
#693
b11101111110 E
#697
b11101111111 E
#701
b11110000000 E
#705
b11110000001 E
#709
b11110000010 E
#713
b11110000011 E
#717
b11110000100 E
#721
b11110000101 E
#725
b11110000110 E
#729
b11110000111 E
#733
b11110001000 E
#737
b11110001001 E
#741
b11110001010 E
#745
b11110001011 E
#749
b11110001100 E
#753
b11110001101 E
#757
b11110001110 E
#761
b11110001111 E
#765
b11110010000 E
#769
b11110010001 E
#773
b11110010010 E
#777
b11110010011 E
#781
b11110010100 E
#785
b11110010101 E
#789
b11110010110 E
#793
b11110010111 E
#797
b11110011000 E
#801
b11110011001 E
#805
b11110011010 E
#809
b11110011011 E
#813
b11110011100 E
#817
b11110011101 E
#821
b11110011110 E
#825
b11110011111 E
#829
b11110100000 E
#833
b11110100001 E
#837
b11110100010 E
#841
b11110100011 E
#845
b11110100100 E
#849
b11110100101 E
#853
b11110100110 E
#857
b11110100111 E
#861
b11110101000 E
#865
b11110101001 E
#869
b11110101010 E
#873
b11110101011 E
#877
b11110101100 E
#881
b11110101101 E
#885
b11110101110 E
#889
b11110101111 E
#893
b11110110000 E
#897
b11110110001 E
#901
b11110110010 E
#905
b11110110011 E
#909
b11110110100 E
#913
b11110110101 E
#917
1#
1$
b11110110110 E
b1110101000101010 Q
b1110101000101010 n
#918
0#
0$
b1111000010 b
b1111000010 !"
#919
b111100000101110101000101010 '
0D
#921
1D
b11110110111 E
#925
b11110111000 E
#929
b11110111001 E
#933
b11110111010 E
#937
b11110111011 E
#941
b11110111100 E
#945
b11110111101 E
#949
b11110111110 E
#953
b11110111111 E
#957
b11111000000 E
#961
b11111000001 E
#965
b11111000010 E
#969
b11111000011 E
#973
b11111000100 E
#977
b11111000101 E
#981
b11111000110 E
#985
b11111000111 E
#989
b11111001000 E
#993
b11111001001 E
#997
b11111001010 E
#1001
b11111001011 E
#1005
b11111001100 E
#1009
b11111001101 E
#1013
b11111001110 E
#1017
b11111001111 E
#1021
b11111010000 E
