.Xil/vivado_lab-16748-localhost.localdomain/hw_ila_data_2/zip_work/waveform.vcd
$date
        2021-Apr-21 19:23:46
$end
$version
        Vivado Lab Edition v2019.2 (64-bit)
$end
$timescale
        1ps
$end
$scope module dut $end
$var reg 1 " tdc_decoder_top_inst/inst_trigger_interface/srst_160 $end
$var reg 1 # tdc_decoder_top_inst/inst_trigger_interface/trigger_write_1 $end
$var reg 1 $ tdc_decoder_top_inst/inst_trigger_interface/trigger_write $end
$var reg 1 % tdc_decoder_top_inst/inst_trigger_interface/trigger_fifo_full $end
$var reg 1 & tdc_decoder_top_inst/inst_trigger_interface/trigger_ready $end
$var reg 29 ' tdc_decoder_top_inst/inst_trigger_interface/trigger_fifo_data [28:0] $end
$var reg 1 D tdc_decoder_top_inst/inst_trigger_interface/trigger_fifo_empty $end
$var reg 12 E tdc_decoder_top_inst/inst_trigger_interface/trigger_coarse [11:0] $end
$var reg 17 Q tdc_decoder_top_inst/inst_trigger_interface/trigger_time_delayed_1 [16:0] $end
$var reg 12 b tdc_decoder_top_inst/inst_trigger_interface/event_count_1 [11:0] $end
$var reg 17 n tdc_decoder_top_inst/inst_trigger_interface/trigger_time_delayed [16:0] $end
$var reg 12 !" tdc_decoder_top_inst/inst_trigger_interface/event_count [11:0] $end
$var reg 1 -" tdc_decoder_top_inst/inst_trigger_interface/trigger_in $end
$var reg 1 ." _TRIGGER $end
$var reg 1 /" _WINDOW $end
$var reg 1 0" _GAP $end
$upscope $end
$enddefinitions $end
#0
$dumpvars
0"
0#
0$
0%
0&
b111010000110110110000100100 '
1D
b1001000100 E
b10110110000100100 Q
b1110100010 b
b10110110000100100 n
b1110100010 !"
1-"
0."
1/"
00"
$end
#1
b1001000101 E
#5
b1001000110 E
#9
b1001000111 E
#13
b1001001000 E
#17
b1001001001 E
#21
b1001001010 E
#25
b1001001011 E
#29
b1001001100 E
#33
b1001001101 E
#37
b1001001110 E
#41
b1001001111 E
#45
b1001010000 E
#49
b1001010001 E
#53
b1001010010 E
#57
b1001010011 E
#61
b1001010100 E
#65
b1001010101 E
#69
b1001010110 E
#73
b1001010111 E
#77
b1001011000 E
#81
b1001011001 E
#85
b1001011010 E
#89
b1001011011 E
#93
b1001011100 E
#97
b1001011101 E
#101
b1001011110 E
#105
b1001011111 E
#109
b1001100000 E
#113
b1001100001 E
#117
b1001100010 E
#121
b1001100011 E
#125
b1001100100 E
#129
b1001100101 E
#133
b1001100110 E
#137
b1001100111 E
#141
b1001101000 E
#145
b1001101001 E
#149
b1001101010 E
#153
b1001101011 E
#157
b1001101100 E
#161
b1001101101 E
#165
b1001101110 E
#169
b1001101111 E
#173
b1001110000 E
#177
b1001110001 E
#181
b1001110010 E
#185
b1001110011 E
#189
b1001110100 E
#193
b1001110101 E
#197
b1001110110 E
#201
b1001110111 E
#205
b1001111000 E
#209
b1001111001 E
#213
b1001111010 E
#217
b1001111011 E
#221
b1001111100 E
#225
b1001111101 E
#229
b1001111110 E
#233
b1001111111 E
#237
b1010000000 E
#241
b1010000001 E
#245
b1010000010 E
#249
b1010000011 E
#253
b1010000100 E
#257
b1010000101 E
#261
b1010000110 E
#265
b1010000111 E
#269
b1010001000 E
#273
b1010001001 E
#277
b1010001010 E
#281
b1010001011 E
#285
b1010001100 E
#289
b1010001101 E
#293
b1010001110 E
#297
b1010001111 E
#301
b1010010000 E
#305
b1010010001 E
#309
b1010010010 E
#313
b1010010011 E
#317
b1010010100 E
#321
b1010010101 E
#325
b1010010110 E
#329
b1010010111 E
#333
b1010011000 E
#337
b1010011001 E
#341
b1010011010 E
#345
b1010011011 E
#349
b1010011100 E
#353
b1010011101 E
#357
b1010011110 E
#361
b1010011111 E
#365
b1010100000 E
#369
b1010100001 E
#373
b1010100010 E
#377
b1010100011 E
#381
b1010100100 E
#385
b1010100101 E
#389
b1010100110 E
#393
b1010100111 E
#397
b1010101000 E
#401
b1010101001 E
#405
b1010101010 E
#409
b1010101011 E
#413
b1010101100 E
#417
b1010101101 E
#421
b1010101110 E
#425
b1010101111 E
#429
b1010110000 E
#433
b1010110001 E
#437
b1010110010 E
#441
b1010110011 E
#445
b1010110100 E
#449
b1010110101 E
#453
b1010110110 E
#457
b1010110111 E
#461
b1010111000 E
#465
b1010111001 E
#469
b1010111010 E
#473
b1010111011 E
#477
b1010111100 E
#481
b1010111101 E
#485
b1010111110 E
#489
b1010111111 E
#493
b1011000000 E
#497
b1011000001 E
#501
b1011000010 E
#505
b1011000011 E
#509
b1011000100 E
#512
0-"
1."
#513
b1011000101 E
#515
1&
#516
0&
#517
b1011000110 E
#521
b1011000111 E
1-"
#525
b1011001000 E
#529
b1011001001 E
#533
b1011001010 E
#537
b1011001011 E
#541
b1011001100 E
#545
b1011001101 E
#549
b1011001110 E
#553
b1011001111 E
#557
b1011010000 E
#561
b1011010001 E
#565
b1011010010 E
#569
b1011010011 E
#573
b1011010100 E
#577
b1011010101 E
#581
b1011010110 E
#585
b1011010111 E
#589
b1011011000 E
#593
b1011011001 E
#597
b1011011010 E
#601
b1011011011 E
#605
b1011011100 E
#609
b1011011101 E
#613
b1011011110 E
#617
b1011011111 E
#621
b1011100000 E
#625
b1011100001 E
#629
b1011100010 E
#633
b1011100011 E
#637
b1011100100 E
#641
b1011100101 E
#645
b1011100110 E
#649
b1011100111 E
#653
b1011101000 E
#657
b1011101001 E
#661
b1011101010 E
#665
b1011101011 E
#669
b1011101100 E
#673
b1011101101 E
#677
b1011101110 E
#681
b1011101111 E
#685
b1011110000 E
#689
b1011110001 E
#693
b1011110010 E
#697
b1011110011 E
#701
b1011110100 E
#705
b1011110101 E
#709
b1011110110 E
#713
b1011110111 E
#717
b1011111000 E
#721
b1011111001 E
#725
b1011111010 E
#729
b1011111011 E
#733
b1011111100 E
#737
b1011111101 E
#741
b1011111110 E
#745
b1011111111 E
#749
b1100000000 E
#753
b1100000001 E
#757
b1100000010 E
#761
b1100000011 E
#765
b1100000100 E
#769
b1100000101 E
#773
b1100000110 E
#777
b1100000111 E
#781
b1100001000 E
#785
b1100001001 E
#789
b1100001010 E
#793
b1100001011 E
#797
b1100001100 E
#801
b1100001101 E
#805
b1100001110 E
#809
b1100001111 E
#813
b1100010000 E
#817
b1100010001 E
#821
b1100010010 E
#825
b1100010011 E
#829
b1100010100 E
#833
b1100010101 E
#837
b1100010110 E
#841
b1100010111 E
#845
b1100011000 E
#849
b1100011001 E
#853
b1100011010 E
#857
b1100011011 E
#861
b1100011100 E
#865
b1100011101 E
#869
b1100011110 E
#873
b1100011111 E
#877
b1100100000 E
#881
b1100100001 E
#885
b1100100010 E
#889
b1100100011 E
#893
b1100100100 E
#897
b1100100101 E
#901
b1100100110 E
#905
b1100100111 E
#909
b1100101000 E
#913
b1100101001 E
#917
1#
1$
b1100101010 E
b101100010101100 Q
b101100010101100 n
#918
0#
0$
b1110100011 b
b1110100011 !"
#919
b111010001000101100010101100 '
0D
#921
1D
b1100101011 E
#925
b1100101100 E
#929
b1100101101 E
#933
b1100101110 E
#937
b1100101111 E
#941
b1100110000 E
#945
b1100110001 E
#949
b1100110010 E
#953
b1100110011 E
#957
b1100110100 E
#961
b1100110101 E
#965
b1100110110 E
#969
b1100110111 E
#973
b1100111000 E
#977
b1100111001 E
#981
b1100111010 E
#985
b1100111011 E
#989
b1100111100 E
#993
b1100111101 E
#997
b1100111110 E
#1001
b1100111111 E
#1005
b1101000000 E
#1009
b1101000001 E
#1013
b1101000010 E
#1017
b1101000011 E
#1021
b1101000100 E
