DAQ/.Xil/vivado_lab-22234-localhost.localdomain/hw_ila_data_3/zip_work/waveform.vcd
$date
        2021-Apr-07 15:13:57
$end
$version
        Vivado Lab Edition v2019.2 (64-bit)
$end
$timescale
        1ps
$end
$scope module dut $end
$var reg 1 " tdc_decoder_top_inst/inst_trigger_interface/srst_160 $end
$var reg 1 # tdc_decoder_top_inst/inst_trigger_interface/trigger_write_1 $end
$var reg 1 $ tdc_decoder_top_inst/inst_trigger_interface/trigger_write $end
$var reg 1 % tdc_decoder_top_inst/inst_trigger_interface/trigger_fifo_full $end
$var reg 1 & tdc_decoder_top_inst/inst_trigger_interface/trigger_ready $end
$var reg 29 ' tdc_decoder_top_inst/inst_trigger_interface/trigger_fifo_data [28:0] $end
$var reg 1 D tdc_decoder_top_inst/inst_trigger_interface/trigger_fifo_empty $end
$var reg 12 E tdc_decoder_top_inst/inst_trigger_interface/trigger_coarse [11:0] $end
$var reg 17 Q tdc_decoder_top_inst/inst_trigger_interface/trigger_time_delayed_1 [16:0] $end
$var reg 12 b tdc_decoder_top_inst/inst_trigger_interface/event_count_1 [11:0] $end
$var reg 17 n tdc_decoder_top_inst/inst_trigger_interface/trigger_time_delayed [16:0] $end
$var reg 12 !" tdc_decoder_top_inst/inst_trigger_interface/event_count [11:0] $end
$var reg 1 -" tdc_decoder_top_inst/inst_trigger_interface/trigger_in $end
$var reg 1 ." _TRIGGER $end
$var reg 1 /" _WINDOW $end
$var reg 1 0" _GAP $end
$upscope $end
$enddefinitions $end
#0
$dumpvars
0"
0#
0$
0%
0&
b11100101010111100000100110 '
1D
b110000010001 E
b10111100000100110 Q
b111001011 b
b10111100000100110 n
b111001011 !"
1-"
0."
1/"
00"
$end
#1
b110000010010 E
#5
b110000010011 E
#9
b110000010100 E
#13
b110000010101 E
#17
b110000010110 E
#21
b110000010111 E
#25
b110000011000 E
#29
b110000011001 E
#33
b110000011010 E
#37
b110000011011 E
#41
b110000011100 E
#45
b110000011101 E
#49
b110000011110 E
#53
b110000011111 E
#57
b110000100000 E
#61
b110000100001 E
#65
b110000100010 E
#69
b110000100011 E
#73
b110000100100 E
#77
b110000100101 E
#81
b110000100110 E
#85
b110000100111 E
#89
b110000101000 E
#93
b110000101001 E
#97
b110000101010 E
#101
b110000101011 E
#105
b110000101100 E
#109
b110000101101 E
#113
b110000101110 E
#117
b110000101111 E
#121
b110000110000 E
#125
b110000110001 E
#129
b110000110010 E
#133
b110000110011 E
#137
b110000110100 E
#141
b110000110101 E
#145
b110000110110 E
#149
b110000110111 E
#153
b110000111000 E
#157
b110000111001 E
#161
b110000111010 E
#165
b110000111011 E
#169
b110000111100 E
#173
b110000111101 E
#177
b110000111110 E
#181
b110000111111 E
#185
b110001000000 E
#189
b110001000001 E
#193
b110001000010 E
#197
b110001000011 E
#201
b110001000100 E
#205
b110001000101 E
#209
b110001000110 E
#213
b110001000111 E
#217
b110001001000 E
#221
b110001001001 E
#225
b110001001010 E
#229
b110001001011 E
#233
b110001001100 E
#237
b110001001101 E
#241
b110001001110 E
#245
b110001001111 E
#249
b110001010000 E
#253
b110001010001 E
#257
b110001010010 E
#261
b110001010011 E
#265
b110001010100 E
#269
b110001010101 E
#273
b110001010110 E
#277
b110001010111 E
#281
b110001011000 E
#285
b110001011001 E
#289
b110001011010 E
#293
b110001011011 E
#297
b110001011100 E
#301
b110001011101 E
#305
b110001011110 E
#309
b110001011111 E
#313
b110001100000 E
#317
b110001100001 E
#321
b110001100010 E
#325
b110001100011 E
#329
b110001100100 E
#333
b110001100101 E
#337
b110001100110 E
#341
b110001100111 E
#345
b110001101000 E
#349
b110001101001 E
#353
b110001101010 E
#357
b110001101011 E
#361
b110001101100 E
#365
b110001101101 E
#369
b110001101110 E
#373
b110001101111 E
#377
b110001110000 E
#381
b110001110001 E
#385
b110001110010 E
#389
b110001110011 E
#393
b110001110100 E
#397
b110001110101 E
#401
b110001110110 E
#405
b110001110111 E
#409
b110001111000 E
#413
b110001111001 E
#417
b110001111010 E
#421
b110001111011 E
#425
b110001111100 E
#429
b110001111101 E
#433
b110001111110 E
#437
b110001111111 E
#441
b110010000000 E
#445
b110010000001 E
#449
b110010000010 E
#453
b110010000011 E
#457
b110010000100 E
#461
b110010000101 E
#465
b110010000110 E
#469
b110010000111 E
#473
b110010001000 E
#477
b110010001001 E
#481
b110010001010 E
#485
b110010001011 E
#489
b110010001100 E
#493
b110010001101 E
#497
b110010001110 E
#501
b110010001111 E
#505
b110010010000 E
#509
b110010010001 E
#512
1."
#513
b110010010010 E
#517
b110010010011 E
#521
b110010010100 E
#525
b110010010101 E
#529
b110010010110 E
#533
b110010010111 E
#537
b110010011000 E
#541
b110010011001 E
#545
b110010011010 E
#549
b110010011011 E
#553
b110010011100 E
#557
b110010011101 E
#561
b110010011110 E
#565
b110010011111 E
#569
b110010100000 E
#573
b110010100001 E
#577
b110010100010 E
#581
b110010100011 E
#585
b110010100100 E
#589
b110010100101 E
#593
b110010100110 E
#597
b110010100111 E
#601
b110010101000 E
#605
b110010101001 E
#609
b110010101010 E
#613
b110010101011 E
#617
b110010101100 E
#621
b110010101101 E
#625
b110010101110 E
#629
b110010101111 E
#633
b110010110000 E
#637
b110010110001 E
#641
b110010110010 E
#645
b110010110011 E
#649
b110010110100 E
#653
b110010110101 E
#657
b110010110110 E
#661
b110010110111 E
#665
b110010111000 E
#669
b110010111001 E
#673
b110010111010 E
#677
b110010111011 E
#681
b110010111100 E
#685
b110010111101 E
#689
b110010111110 E
#693
b110010111111 E
#697
b110011000000 E
#701
b110011000001 E
#705
b110011000010 E
#709
b110011000011 E
#713
b110011000100 E
#717
b110011000101 E
#721
b110011000110 E
#725
b110011000111 E
#729
b110011001000 E
#733
b110011001001 E
#737
b110011001010 E
#741
b110011001011 E
#745
b110011001100 E
#749
b110011001101 E
#753
b110011001110 E
#757
b110011001111 E
#761
b110011010000 E
#765
b110011010001 E
#769
b110011010010 E
#773
b110011010011 E
#777
b110011010100 E
#781
b110011010101 E
#785
b110011010110 E
#789
b110011010111 E
#793
b110011011000 E
#797
b110011011001 E
#801
b110011011010 E
#805
b110011011011 E
#809
b110011011100 E
#813
b110011011101 E
#817
b110011011110 E
#821
b110011011111 E
#825
b110011100000 E
#829
b110011100001 E
#833
b110011100010 E
#837
b110011100011 E
#841
b110011100100 E
#845
b110011100101 E
#849
b110011100110 E
#853
b110011100111 E
#857
b110011101000 E
#861
b110011101001 E
#865
b110011101010 E
#869
b110011101011 E
#873
b110011101100 E
#877
b110011101101 E
#881
b110011101110 E
#885
b110011101111 E
#889
b110011110000 E
#893
b110011110001 E
#897
b110011110010 E
#901
b110011110011 E
#905
b110011110100 E
#909
b110011110101 E
#913
b110011110110 E
#917
b110011110111 E
#921
b110011111000 E
#925
b110011111001 E
#929
b110011111010 E
#933
b110011111011 E
#937
b110011111100 E
#941
b110011111101 E
#945
b110011111110 E
#949
b110011111111 E
#953
b110100000000 E
#957
b110100000001 E
#961
b110100000010 E
#965
b110100000011 E
#969
b110100000100 E
#973
b110100000101 E
#977
b110100000110 E
#981
b110100000111 E
#985
b110100001000 E
#989
b110100001001 E
#993
b110100001010 E
#997
b110100001011 E
#1001
b110100001100 E
#1005
b110100001101 E
#1009
b110100001110 E
#1013
b110100001111 E
#1017
b110100010000 E
#1021
b110100010001 E
