.Xil/vivado_lab-7959-localhost.localdomain/hw_ila_data_6/zip_work/waveform.vcd
$date
        2021-May-18 23:30:37
$end
$version
        Vivado Lab Edition v2019.2 (64-bit)
$end
$timescale
        1ps
$end
$scope module dut $end
$var reg 1 " \tdc_decoder_top_inst/tdcv2_decoder_wrapper_master/tdcv2_decoder[1].inst_tdcv2_decoder/inst_channel_align_32b/data_ready $end
$var reg 64 # \tdc_decoder_top_inst/tdcv2_decoder_wrapper_master/tdcv2_decoder[1].inst_tdcv2_decoder/inst_channel_align_32b/data_64b_decode [63:0] $end
$var reg 8 c \tdc_decoder_top_inst/tdcv2_decoder_wrapper_master/tdcv2_decoder[1].inst_tdcv2_decoder/inst_channel_align_32b/o_Kout [7:0] $end
$var reg 64 k \tdc_decoder_top_inst/tdcv2_decoder_wrapper_master/tdcv2_decoder[1].inst_tdcv2_decoder/inst_channel_align_32b/data_64b_decode_pre [63:0] $end
$var reg 8 M" \tdc_decoder_top_inst/tdcv2_decoder_wrapper_master/tdcv2_decoder[1].inst_tdcv2_decoder/inst_channel_align_32b/o_Kout_pre [7:0] $end
$var reg 2 U" \tdc_decoder_top_inst/tdcv2_decoder_wrapper_master/tdcv2_decoder[1].inst_tdcv2_decoder/inst_channel_align_32b/data_ready_r [1:0] $end
$var reg 2 W" \tdc_decoder_top_inst/tdcv2_decoder_wrapper_master/tdcv2_decoder[1].inst_tdcv2_decoder/inst_channel_align_32b/data_start [1:0] $end
$var reg 1 Y" \tdc_decoder_top_inst/tdcv2_decoder_wrapper_master/tdcv2_decoder[1].inst_tdcv2_decoder/inst_channel_align_32b/chnl_data_1_valid $end
$var reg 32 Z" \tdc_decoder_top_inst/tdcv2_decoder_wrapper_master/tdcv2_decoder[1].inst_tdcv2_decoder/inst_channel_align_32b/chnl_data_1_1 [31:0] $end
$var reg 5 z" \tdc_decoder_top_inst/tdcv2_decoder_wrapper_master/tdcv2_decoder[1].inst_tdcv2_decoder/inst_channel_align_32b/chnl_data_1_2 [31:27] $end
$var reg 2 !# \tdc_decoder_top_inst/tdcv2_decoder_wrapper_master/tdcv2_decoder[1].inst_tdcv2_decoder/inst_channel_align_32b/chnl_data_1_3 [26:25] $end
$var reg 8 ## \tdc_decoder_top_inst/tdcv2_decoder_wrapper_master/tdcv2_decoder[1].inst_tdcv2_decoder/inst_channel_align_32b/chnl_data_1_4 [7:0] $end
$var reg 17 +# \tdc_decoder_top_inst/tdcv2_decoder_wrapper_master/tdcv2_decoder[1].inst_tdcv2_decoder/inst_channel_align_32b/chnl_data_1 [24:8] $end
$var reg 1 <# \tdc_decoder_top_inst/tdcv2_decoder_wrapper_master/tdcv2_decoder[1].inst_tdcv2_decoder/inst_channel_align_32b/chnl_data_2_valid $end
$var reg 32 =# \tdc_decoder_top_inst/tdcv2_decoder_wrapper_master/tdcv2_decoder[1].inst_tdcv2_decoder/inst_channel_align_32b/chnl_data_2_1 [31:0] $end
$var reg 5 ]# \tdc_decoder_top_inst/tdcv2_decoder_wrapper_master/tdcv2_decoder[1].inst_tdcv2_decoder/inst_channel_align_32b/chnl_data_2_2 [31:27] $end
$var reg 2 b# \tdc_decoder_top_inst/tdcv2_decoder_wrapper_master/tdcv2_decoder[1].inst_tdcv2_decoder/inst_channel_align_32b/chnl_data_2_3 [26:25] $end
$var reg 8 d# \tdc_decoder_top_inst/tdcv2_decoder_wrapper_master/tdcv2_decoder[1].inst_tdcv2_decoder/inst_channel_align_32b/chnl_data_2_4 [7:0] $end
$var reg 17 l# \tdc_decoder_top_inst/tdcv2_decoder_wrapper_master/tdcv2_decoder[1].inst_tdcv2_decoder/inst_channel_align_32b/chnl_data_2 [24:8] $end
$var reg 1 }# _TRIGGER $end
$var reg 1 ~# _WINDOW $end
$var reg 1 !$ _GAP $end
$upscope $end
$enddefinitions $end
#0
$dumpvars
1"
b1011110010111100101111001011110010111100101111001011110010111100 #
b11111111 c
b1011110010111100101111001011110010111100101111001011110010111100 k
b11111111 M"
b0 U"
b0 W"
0Y"
b0 Z"
b0 z"
b0 !#
b0 ##
b0 +#
0<#
b0 =#
b0 ]#
b0 b#
b0 d#
b0 l#
0}#
1~#
0!$
$end
#1
0"
b1 U"
#2
b10 U"
#3
b0 U"
#5
1"
#6
0"
b1 U"
#7
b10 U"
#8
b0 U"
#10
1"
#11
0"
b1 U"
#12
b10 U"
#13
b0 U"
#15
1"
#16
0"
b1 U"
#17
b10 U"
#18
b0 U"
#20
1"
#21
0"
b1 U"
#22
b10 U"
#23
b0 U"
#25
1"
#26
0"
b1 U"
#27
b10 U"
#28
b0 U"
#30
1"
#31
0"
b1 U"
#32
b10 U"
#33
b0 U"
#35
1"
#36
0"
b1 U"
#37
b10 U"
#38
b0 U"
#40
1"
#41
0"
b1 U"
#42
b10 U"
#43
b0 U"
#45
1"
#46
0"
b1 U"
#47
b10 U"
#48
b0 U"
#50
1"
#51
0"
b1 U"
#52
b10 U"
#53
b0 U"
#55
1"
#56
0"
b1 U"
#57
b10 U"
#58
b0 U"
#60
1"
#61
0"
b1 U"
#62
b10 U"
#63
b0 U"
#65
1"
#66
0"
b1 U"
#67
b10 U"
#68
b0 U"
#70
1"
#71
0"
b1 U"
#72
b10 U"
#73
b0 U"
#75
1"
#76
0"
b1 U"
#77
b10 U"
#78
b0 U"
#80
1"
#81
0"
b1 U"
#82
b10 U"
#83
b0 U"
#85
1"
#86
0"
b1 U"
#87
b10 U"
#88
b0 U"
#90
1"
#91
0"
b1 U"
#92
b10 U"
#93
b0 U"
#95
1"
#96
0"
b1 U"
#97
b10 U"
#98
b0 U"
#100
1"
#101
0"
b1 U"
#102
b10 U"
#103
b0 U"
#105
1"
#106
0"
b1 U"
#107
b10 U"
#108
b0 U"
#110
1"
#111
0"
b1 U"
#112
b10 U"
#113
b0 U"
#115
1"
#116
0"
b1 U"
#117
b10 U"
#118
b0 U"
#120
1"
#121
0"
b1 U"
#122
b10 U"
#123
b0 U"
#125
1"
#126
0"
b1 U"
#127
b10 U"
#128
b0 U"
#130
1"
#131
0"
b1 U"
#132
b10 U"
#133
b0 U"
#135
1"
#136
0"
b1 U"
#137
b10 U"
#138
b0 U"
#140
1"
#141
0"
b1 U"
#142
b10 U"
#143
b0 U"
#145
1"
#146
0"
b1 U"
#147
b10 U"
#148
b0 U"
#150
1"
#151
0"
b1 U"
#152
b10 U"
#153
b0 U"
#155
1"
#156
0"
b1 U"
#157
b10 U"
#158
b0 U"
#160
1"
#161
0"
b1 U"
#162
b10 U"
#163
b0 U"
#165
1"
#166
0"
b1 U"
#167
b10 U"
#168
b0 U"
#170
1"
#171
0"
b1 U"
#172
b10 U"
#173
b0 U"
#175
1"
#176
0"
b1 U"
#177
b10 U"
#178
b0 U"
#180
1"
#181
0"
b1 U"
#182
b10 U"
#183
b0 U"
#185
1"
#186
0"
b1 U"
#187
b10 U"
#188
b0 U"
#190
1"
#191
0"
b1 U"
#192
b10 U"
#193
b0 U"
#195
1"
#196
0"
b1 U"
#197
b10 U"
#198
b0 U"
#200
1"
#201
0"
b1 U"
#202
b10 U"
#203
b0 U"
#205
1"
#206
0"
b1 U"
#207
b10 U"
#208
b0 U"
#210
1"
#211
0"
b1 U"
#212
b10 U"
#213
b0 U"
#215
1"
#216
0"
b1 U"
#217
b10 U"
#218
b0 U"
#220
1"
#221
0"
b1 U"
#222
b10 U"
#223
b0 U"
#225
1"
#226
0"
b1 U"
#227
b10 U"
#228
b0 U"
#230
1"
#231
0"
b1 U"
#232
b10 U"
#233
b0 U"
#235
1"
#236
0"
b1 U"
#237
b10 U"
#238
b0 U"
#240
1"
#241
0"
b1 U"
#242
b10 U"
#243
b0 U"
#245
1"
#246
0"
b1 U"
#247
b10 U"
#248
b0 U"
#250
1"
#251
0"
b1 U"
#252
b10 U"
#253
b0 U"
#255
1"
#256
0"
b1 U"
#257
b10 U"
#258
b0 U"
#260
1"
#261
0"
b1 U"
#262
b10 U"
#263
b0 U"
#265
1"
#266
0"
b1 U"
#267
b10 U"
#268
b0 U"
#270
1"
#271
0"
b1 U"
#272
b10 U"
#273
b0 U"
#275
1"
#276
0"
b1 U"
#277
b10 U"
#278
b0 U"
#280
1"
#281
0"
b1 U"
#282
b10 U"
#283
b0 U"
#285
1"
#286
0"
b1 U"
#287
b10 U"
#288
b0 U"
#290
1"
#291
0"
b1 U"
#292
b10 U"
#293
b0 U"
#295
1"
#296
0"
b1 U"
#297
b10 U"
#298
b0 U"
#300
1"
#301
0"
b1 U"
#302
b10 U"
#303
b0 U"
#305
1"
#306
0"
b1 U"
#307
b10 U"
#308
b0 U"
#310
1"
#311
0"
b1 U"
#312
b10 U"
#313
b0 U"
#315
1"
#316
0"
b1 U"
#317
b10 U"
#318
b0 U"
#320
1"
#321
0"
b1 U"
#322
b10 U"
#323
b0 U"
#325
1"
#326
0"
b1 U"
#327
b10 U"
#328
b0 U"
#330
1"
#331
0"
b1 U"
#332
b10 U"
#333
b0 U"
#335
1"
#336
0"
b1 U"
#337
b10 U"
#338
b0 U"
#340
1"
#341
0"
b1 U"
#342
b10 U"
#343
b0 U"
#345
1"
#346
0"
b1 U"
#347
b10 U"
#348
b0 U"
#350
1"
#351
0"
b1 U"
#352
b10 U"
#353
b0 U"
#355
1"
#356
0"
b1 U"
#357
b10 U"
#358
b0 U"
#360
1"
#361
0"
b1 U"
#362
b10 U"
#363
b0 U"
#365
1"
#366
0"
b1 U"
#367
b10 U"
#368
b0 U"
#370
1"
#371
0"
b1 U"
#372
b10 U"
#373
b0 U"
#375
1"
#376
0"
b1 U"
#377
b10 U"
#378
b0 U"
#380
1"
#381
0"
b1 U"
#382
b10 U"
#383
b0 U"
#385
1"
#386
0"
b1 U"
#387
b10 U"
#388
b0 U"
#390
1"
#391
0"
b1 U"
#392
b10 U"
#393
b0 U"
#395
1"
#396
0"
b1 U"
#397
b10 U"
#398
b0 U"
#400
1"
#401
0"
b1 U"
#402
b10 U"
#403
b0 U"
#405
1"
#406
0"
b1 U"
#407
b10 U"
#408
b0 U"
#410
1"
#411
0"
b1 U"
#412
b10 U"
#413
b0 U"
#415
1"
#416
0"
b1 U"
#417
b10 U"
#418
b0 U"
#420
1"
#421
0"
b1 U"
#422
b10 U"
#423
b0 U"
#425
1"
#426
0"
b1 U"
#427
b10 U"
#428
b0 U"
#430
1"
#431
0"
b1 U"
#432
b10 U"
#433
b0 U"
#435
1"
#436
0"
b1 U"
#437
b10 U"
#438
b0 U"
#440
1"
#441
0"
b1 U"
#442
b10 U"
#443
b0 U"
#445
1"
#446
0"
b1 U"
#447
b10 U"
#448
b0 U"
#450
1"
#451
0"
b1 U"
#452
b10 U"
#453
b0 U"
#455
1"
#456
0"
b1 U"
#457
b10 U"
#458
b0 U"
#460
1"
#461
0"
b1 U"
#462
b10 U"
#463
b0 U"
#465
1"
#466
0"
b1 U"
#467
b10 U"
#468
b0 U"
#470
1"
#471
0"
b1 U"
#472
b10 U"
#473
b0 U"
#475
1"
#476
0"
b1 U"
#477
b10 U"
#478
b0 U"
#480
1"
#481
0"
b1 U"
#482
b10 U"
#483
b0 U"
#485
1"
#486
0"
b1 U"
#487
b10 U"
#488
b0 U"
#490
1"
#491
0"
b1 U"
#492
b10 U"
#493
b0 U"
#495
1"
#496
0"
b1 U"
#497
b10 U"
#498
b0 U"
#500
1"
#501
0"
b1 U"
#502
b10 U"
#503
b0 U"
#505
1"
#506
0"
b1 U"
#507
b10 U"
#508
b0 U"
#510
1"
#511
0"
b1 U"
#512
b10 U"
1}#
#513
b0 U"
#515
1"
#516
0"
b1 U"
#517
b10 U"
#518
b0 U"
#520
1"
#521
0"
b1 U"
#522
b10 U"
#523
b0 U"
#525
1"
#526
0"
b1 U"
#527
b10 U"
#528
b0 U"
#530
1"
#531
0"
b1 U"
#532
b10 U"
#533
b0 U"
#535
1"
#536
0"
b1 U"
#537
b10 U"
#538
b0 U"
#540
1"
#541
0"
b1 U"
#542
b10 U"
#543
b0 U"
#545
1"
#546
0"
b1 U"
#547
b10 U"
#548
b0 U"
#550
1"
#551
0"
b1 U"
#552
b10 U"
#553
b0 U"
#555
1"
#556
0"
b1 U"
#557
b10 U"
#558
b0 U"
#560
1"
#561
0"
b1 U"
#562
b10 U"
#563
b0 U"
#565
1"
#566
0"
b1 U"
#567
b10 U"
#568
b0 U"
#570
1"
#571
0"
b1 U"
#572
b10 U"
#573
b0 U"
#575
1"
#576
0"
b1 U"
#577
b10 U"
#578
b0 U"
#580
1"
#581
0"
b1 U"
#582
b10 U"
#583
b0 U"
#585
1"
#586
0"
b1 U"
#587
b10 U"
#588
b0 U"
#590
1"
#591
0"
b1 U"
#592
b10 U"
#593
b0 U"
#595
1"
#596
0"
b1 U"
#597
b10 U"
#598
b0 U"
#600
1"
#601
0"
b1 U"
#602
b10 U"
#603
b0 U"
#605
1"
#606
0"
b1 U"
#607
b10 U"
#608
b0 U"
#610
1"
#611
0"
b1 U"
#612
b10 U"
#613
b0 U"
#615
1"
#616
0"
b1 U"
#617
b10 U"
#618
b0 U"
#620
1"
#621
0"
b1 U"
#622
b10 U"
#623
b0 U"
#625
1"
#626
0"
b1 U"
#627
b10 U"
#628
b0 U"
#630
1"
#631
0"
b1 U"
#632
b10 U"
#633
b0 U"
#635
1"
#636
0"
b1 U"
#637
b10 U"
#638
b0 U"
#640
1"
#641
0"
b1 U"
#642
b10 U"
#643
b0 U"
#645
1"
#646
0"
b1 U"
#647
b10 U"
#648
b0 U"
#650
1"
#651
0"
b1 U"
#652
b10 U"
#653
b0 U"
#655
1"
#656
0"
b1 U"
#657
b10 U"
#658
b0 U"
#660
1"
#661
0"
b1 U"
#662
b10 U"
#663
b0 U"
#665
1"
#666
0"
b1 U"
#667
b10 U"
#668
b0 U"
#670
1"
#671
0"
b1 U"
#672
b10 U"
#673
b0 U"
#675
1"
#676
0"
b1 U"
#677
b10 U"
#678
b0 U"
#680
1"
#681
0"
b1 U"
#682
b10 U"
#683
b0 U"
#685
1"
#686
0"
b1 U"
#687
b10 U"
#688
b0 U"
#690
1"
#691
0"
b1 U"
#692
b10 U"
#693
b0 U"
#695
1"
#696
0"
b1 U"
#697
b10 U"
#698
b0 U"
#700
1"
#701
0"
b1 U"
#702
b10 U"
#703
b0 U"
#705
1"
#706
0"
b1 U"
#707
b10 U"
#708
b0 U"
#710
1"
#711
0"
b1 U"
#712
b10 U"
#713
b0 U"
#715
1"
#716
0"
b1 U"
#717
b10 U"
#718
b0 U"
#720
1"
#721
0"
b1 U"
#722
b10 U"
#723
b0 U"
#725
1"
#726
0"
b1 U"
#727
b10 U"
#728
b0 U"
#730
1"
#731
0"
b1 U"
#732
b10 U"
#733
b0 U"
#735
1"
#736
0"
b1 U"
#737
b10 U"
#738
b0 U"
#740
1"
#741
0"
b1 U"
#742
b10 U"
#743
b0 U"
#745
1"
#746
0"
b1 U"
#747
b10 U"
#748
b0 U"
#750
1"
#751
0"
b1 U"
#752
b10 U"
#753
b0 U"
#755
1"
#756
0"
b1 U"
#757
b10 U"
#758
b0 U"
#760
1"
#761
0"
b1 U"
#762
b10 U"
#763
b0 U"
#765
1"
#766
0"
b1 U"
#767
b10 U"
#768
b0 U"
#770
1"
#771
0"
b1 U"
#772
b10 U"
#773
b0 U"
#775
1"
#776
0"
b1 U"
#777
b10 U"
#778
b0 U"
#780
1"
#781
0"
b1 U"
#782
b10 U"
#783
b0 U"
#785
1"
#786
0"
b1 U"
#787
b10 U"
#788
b0 U"
#790
1"
#791
0"
b1 U"
#792
b10 U"
#793
b0 U"
#795
1"
#796
0"
b1 U"
#797
b10 U"
#798
b0 U"
#800
1"
#801
0"
b1 U"
#802
b10 U"
#803
b0 U"
#805
1"
#806
0"
b1 U"
#807
b10 U"
#808
b0 U"
#810
1"
#811
0"
b1 U"
#812
b10 U"
#813
b0 U"
#815
1"
#816
0"
b1 U"
#817
b10 U"
#818
b0 U"
#820
1"
#821
0"
b1 U"
#822
b10 U"
#823
b0 U"
#825
1"
#826
0"
b1 U"
#827
b10 U"
#828
b0 U"
#830
1"
#831
0"
b1 U"
#832
b10 U"
#833
b0 U"
#835
1"
#836
0"
b1 U"
#837
b10 U"
#838
b0 U"
#840
1"
#841
0"
b1 U"
#842
b10 U"
#843
b0 U"
#845
1"
#846
0"
b1 U"
#847
b10 U"
#848
b0 U"
#850
1"
#851
0"
b1 U"
#852
b10 U"
#853
b0 U"
#855
1"
#856
0"
b1 U"
#857
b10 U"
#858
b0 U"
#860
1"
#861
0"
b1 U"
#862
b10 U"
#863
b0 U"
#865
1"
#866
0"
b1 U"
#867
b10 U"
#868
b0 U"
#870
1"
#871
0"
b1 U"
#872
b10 U"
#873
b0 U"
#875
1"
#876
0"
b1 U"
#877
b10 U"
#878
b0 U"
#880
1"
#881
0"
b1 U"
#882
b10 U"
#883
b0 U"
#885
1"
#886
0"
b1 U"
#887
b10 U"
#888
b0 U"
#890
1"
#891
0"
b1 U"
#892
b10 U"
#893
b0 U"
#895
1"
#896
0"
b1 U"
#897
b10 U"
#898
b0 U"
#900
1"
#901
0"
b1 U"
#902
b10 U"
#903
b0 U"
#905
1"
#906
0"
b1 U"
#907
b10 U"
#908
b0 U"
#910
1"
#911
0"
b1 U"
#912
b10 U"
#913
b0 U"
#915
1"
#916
0"
b1 U"
#917
b10 U"
#918
b0 U"
#920
1"
#921
0"
b1 U"
#922
b10 U"
#923
b0 U"
#925
1"
#926
0"
b1 U"
#927
b10 U"
#928
b0 U"
#930
1"
#931
0"
b1 U"
#932
b10 U"
#933
b0 U"
#935
1"
#936
0"
b1 U"
#937
b10 U"
#938
b0 U"
#940
1"
#941
0"
b1 U"
#942
b10 U"
#943
b0 U"
#945
1"
#946
0"
b1 U"
#947
b10 U"
#948
b0 U"
#950
1"
#951
0"
b1 U"
#952
b10 U"
#953
b0 U"
#955
1"
#956
0"
b1 U"
#957
b10 U"
#958
b0 U"
#960
1"
#961
0"
b1 U"
#962
b10 U"
#963
b0 U"
#965
1"
#966
0"
b1 U"
#967
b10 U"
#968
b0 U"
#970
1"
#971
0"
b1 U"
#972
b10 U"
#973
b0 U"
#975
1"
#976
0"
b1 U"
#977
b10 U"
#978
b0 U"
#980
1"
#981
0"
b1 U"
#982
b10 U"
#983
b0 U"
#985
1"
#986
0"
b1 U"
#987
b10 U"
#988
b0 U"
#990
1"
#991
0"
b1 U"
#992
b10 U"
#993
b0 U"
#995
1"
#996
0"
b1 U"
#997
b10 U"
#998
b0 U"
#1000
1"
#1001
0"
b1 U"
#1002
b10 U"
#1003
b0 U"
#1005
1"
#1006
0"
b1 U"
#1007
b10 U"
#1008
b0 U"
#1010
1"
#1011
0"
b1 U"
#1012
b10 U"
#1013
b0 U"
#1015
1"
#1016
0"
b1 U"
#1017
b10 U"
#1018
b0 U"
#1020
1"
#1021
0"
b1 U"
#1022
b10 U"
#1023
b0 U"
