DAQ/.Xil/vivado_lab-22234-localhost.localdomain/hw_ila_data_5/zip_work/waveform.vcd
$date
        2021-Apr-08 03:37:33
$end
$version
        Vivado Lab Edition v2019.2 (64-bit)
$end
$timescale
        1ps
$end
$scope module dut $end
$var reg 32 " \tdc_decoder_top_inst/tdcv2_decoder_wrapper_master/tdcv2_decoder[1].inst_tdcv2_decoder/trigger_matching_inst/tdc_hit_data_sync [31:0] $end
$var reg 1 B \tdc_decoder_top_inst/tdcv2_decoder_wrapper_master/tdcv2_decoder[1].inst_tdcv2_decoder/trigger_matching_inst/sync_fifo_empty $end
$var reg 32 C \tdc_decoder_top_inst/tdcv2_decoder_wrapper_master/tdcv2_decoder[1].inst_tdcv2_decoder/trigger_matching_inst/matched_data [31:0] $end
$var reg 1 c \tdc_decoder_top_inst/tdcv2_decoder_wrapper_master/tdcv2_decoder[1].inst_tdcv2_decoder/trigger_matching_inst/match_valid $end
$var reg 32 d \tdc_decoder_top_inst/tdcv2_decoder_wrapper_master/tdcv2_decoder[1].inst_tdcv2_decoder/trigger_matching_inst/ram_data_out [31:0] $end
$var reg 10 &" \tdc_decoder_top_inst/tdcv2_decoder_wrapper_master/tdcv2_decoder[1].inst_tdcv2_decoder/trigger_matching_inst/waddr [9:0] $end
$var reg 10 0" \tdc_decoder_top_inst/tdcv2_decoder_wrapper_master/tdcv2_decoder[1].inst_tdcv2_decoder/trigger_matching_inst/raddr [9:0] $end
$var reg 10 :" \tdc_decoder_top_inst/tdcv2_decoder_wrapper_master/tdcv2_decoder[1].inst_tdcv2_decoder/trigger_matching_inst/saddr [9:0] $end
$var reg 1 D" \tdc_decoder_top_inst/tdcv2_decoder_wrapper_master/tdcv2_decoder[1].inst_tdcv2_decoder/trigger_matching_inst/ram_empty $end
$var reg 1 E" \tdc_decoder_top_inst/tdcv2_decoder_wrapper_master/tdcv2_decoder[1].inst_tdcv2_decoder/trigger_matching_inst/ram_full $end
$var reg 1 F" \tdc_decoder_top_inst/tdcv2_decoder_wrapper_master/tdcv2_decoder[1].inst_tdcv2_decoder/trigger_matching_inst/ram_read $end
$var reg 5 G" \tdc_decoder_top_inst/tdcv2_decoder_wrapper_master/tdcv2_decoder[1].inst_tdcv2_decoder/trigger_matching_inst/state [4:0] $end
$var reg 5 L" \tdc_decoder_top_inst/tdcv2_decoder_wrapper_master/tdcv2_decoder[1].inst_tdcv2_decoder/trigger_matching_inst/next [4:0] $end
$var reg 1 Q" \tdc_decoder_top_inst/tdcv2_decoder_wrapper_master/tdcv2_decoder[1].inst_tdcv2_decoder/trigger_matching_inst/in_range_keep $end
$var reg 1 R" \tdc_decoder_top_inst/tdcv2_decoder_wrapper_master/tdcv2_decoder[1].inst_tdcv2_decoder/trigger_matching_inst/in_range_match $end
$var reg 1 S" \tdc_decoder_top_inst/tdcv2_decoder_wrapper_master/tdcv2_decoder[1].inst_tdcv2_decoder/trigger_matching_inst/in_range_search $end
$var reg 1 T" _TRIGGER $end
$var reg 1 U" _WINDOW $end
$var reg 1 V" _GAP $end
$upscope $end
$enddefinitions $end
#0
$dumpvars
b1010110000001101011010010010010 "
1B
b0 C
0c
b111111000010010110001101100010 d
b1001000101 &"
b1001000101 0"
b1001000101 :"
1D"
0E"
1F"
b1 G"
b1 L"
0Q"
0R"
0S"
0T"
1U"
0V"
$end
#234
b1111110011100101011110101000101 "
0B
#235
1B
b1001000110 &"
0D"
#236
b1111110011100101011110101000101 d
1Q"
#250
b10010110011100101110001101010000 "
0B
#251
1B
b1001000111 &"
#270
b1101110011100110011000001101101 "
0B
#271
1B
b1001001000 &"
#274
b1100110011100110011011010000010 "
0B
#275
1B
b1001001001 &"
#508
b10 L"
#509
b10 G"
b100 L"
1R"
1S"
#510
b100 G"
b1000 L"
#511
b1001000110 0"
b1000 G"
#512
b1111110011100101011110101000101 C
1c
b10010110011100101110001101010000 d
b1001000111 0"
1T"
#513
b10010110011100101110001101010000 C
b1101110011100110011000001101101 d
b1001001000 0"
#514
b1101110011100110011000001101101 C
b1100110011100110011011010000010 d
b1001001001 0"
1D"
b10000 L"
#515
b1100110011100110011011010000010 C
b10000111000100001111100110010010 d
b10000 G"
b1 L"
0Q"
0R"
0S"
#516
b0 C
0c
b1001000101 0"
0D"
b1 G"
#517
b1111110011100101011110101000101 d
1Q"
1R"
1S"
#969
0Q"
#970
b1001000110 0"
b1001000110 :"
#971
b10010110011100101110001101010000 d
1Q"
#977
0Q"
#978
b1001000111 0"
b1001000111 :"
#979
b1101110011100110011000001101101 d
1Q"
#985
0Q"
#986
b1001001000 0"
b1001001000 :"
#987
b1100110011100110011011010000010 d
#988
b1001001001 0"
b1001001001 :"
1D"
#989
b10000111000100001111100110010010 d
0R"
0S"
